Project 1: Happiness Analysis
…
# The first data set, the World Happiness Report was imported into R. Five variables from this dataset was removed to narrow the focus on less variables later on.
happinessdata1 <- happinessdata %>% select(-`Overall rank`, -`Social support`, -`Freedom to make life choices`, -Generosity, -`Perceptions of corruption`) 
names(happinessdata1)[names(happinessdata1) == "Country or region"] <- "country"
names(happinessdata1)[names(happinessdata1) == "Healthy life expectancy"] <- "healthylifeexpectancy"
names(happinessdata1)[names(happinessdata1) == "GDP per capita"] <- "gdp"
happinessdata1

## # A tibble: 156 x 4
##    country     Score   gdp healthylifeexpectancy
##    <chr>       <dbl> <dbl>                 <dbl>
##  1 Finland      7.77  1.34                 0.986
##  2 Denmark      7.6   1.38                 0.996
##  3 Norway       7.55  1.49                 1.03 
##  4 Iceland      7.49  1.38                 1.03 
##  5 Netherlands  7.49  1.40                 0.999
##  6 Switzerland  7.48  1.45                 1.05 
##  7 Sweden       7.34  1.39                 1.01 
##  8 New Zealand  7.31  1.30                 1.03 
##  9 Canada       7.28  1.36                 1.04 
## 10 Austria      7.25  1.38                 1.02 
## # … with 146 more rows
…
## 
## ── Column specification ────────────────────────────────────────────────────────
## cols(
##   .default = col_double(),
##   country = col_character()
## )
## ℹ Use `spec()` for the full column specifications.

incomedata1 <- incomedata %>% select(country, '2019')
names(incomedata1)[names(incomedata1) == "2019"] <- "Income"
incomedata1

## # A tibble: 193 x 2
##    country             Income
##    <chr>                <dbl>
##  1 Afghanistan           1760
##  2 Albania              12700
##  3 Algeria              14000
##  4 Andorra              53200
##  5 Angola                5540
##  6 Antigua and Barbuda  24500
##  7 Argentina            17500
##  8 Armenia               9730
##  9 Australia            45500
## 10 Austria              46900
## # … with 183 more rows
…
Wrangling

library(dplyr)

# The six core dplyr functions were used.
mergeddata <- mergeddata %>% mutate(income_cat = ifelse(Income > 75333.66, "high", ifelse(Income<=75333.66 & 28250<=Income, "med", "low")))
mean(mergeddata$Score)

## [1] 5.414573

mergeddata %>% select(country, Score, Income) %>% filter(Score >= 5.414573) %>% arrange(desc(Score)) 

## # A tibble: 71 x 3
##    country     Score Income
##    <chr>       <dbl>  <dbl>
##  1 Finland      7.77  42400
##  2 Denmark      7.6   48300
##  3 Norway       7.55  66300
##  4 Iceland      7.49  47900
##  5 Netherlands  7.49  50500
##  6 Switzerland  7.48  59000
##  7 Sweden       7.34  47200
##  8 New Zealand  7.31  36500
##  9 Canada       7.28  44200
## 10 Austria      7.25  46900
## # … with 61 more rows
…
